%YAML 1.1
%TAG !u! tag:unity3d.com,2011:
--- !u!114 &11400000
MonoBehaviour:
  m_ObjectHideFlags: 0
  m_CorrespondingSourceObject: {fileID: 0}
  m_PrefabInstance: {fileID: 0}
  m_PrefabAsset: {fileID: 0}
  m_GameObject: {fileID: 0}
  m_Enabled: 1
  m_EditorHideFlags: 0
  m_Script: {fileID: 11500000, guid: 97e4a4156df2f014f827b5f26a7f71b4, type: 3}
  m_Name: HitSounds
  m_EditorClassIdentifier: 
  audioClips:
  - {fileID: 8300000, guid: 4cdf7a5b0b3c4224ba716cde94027731, type: 3}
  - {fileID: 8300000, guid: c977482f79c9239479f703b4bdcc4aad, type: 3}
  - {fileID: 8300000, guid: c471b24014d271a4eb6eb7b9ca6f13b9, type: 3}
  - {fileID: 8300000, guid: a35280689849a034eafb5159560916f8, type: 3}
  - {fileID: 8300000, guid: 9b3ecc3e01e51174a8fa90e0b545924b, type: 3}
  - {fileID: 8300000, guid: 03ae4b12957ec6f45a0cd24e17438cae, type: 3}
  - {fileID: 8300000, guid: a11e3f63a00e7e2498e011f1478c8e91, type: 3}
  - {fileID: 8300000, guid: 3dbb6313e78ee9d44831beffbafbeff1, type: 3}
  - {fileID: 8300000, guid: 8eb3486d0001843418a1ec1e70af2e5d, type: 3}
  - {fileID: 8300000, guid: 85f267a30b1214943841e1fc02ada2dd, type: 3}
  - {fileID: 8300000, guid: 36c0a034c60a5284f9ec3bfdfeffd502, type: 3}
  - {fileID: 8300000, guid: 6d537ad3789f9ec48a93484f820eab71, type: 3}
  - {fileID: 8300000, guid: 94cc54184f9ac6341b43df5706a0f11e, type: 3}
  minPitch: 0.9
  maxPitch: 1.1
  minVolume: 0.8
  maxVolume: 1
  outputGroup: {fileID: -5671607795887600216, guid: 9fd997db56299f4468d0169cffeea403,
    type: 2}
