%YAML 1.1
%TAG !u! tag:unity3d.com,2011:
--- !u!114 &11400000
MonoBehaviour:
  m_ObjectHideFlags: 0
  m_CorrespondingSourceObject: {fileID: 0}
  m_PrefabInstance: {fileID: 0}
  m_PrefabAsset: {fileID: 0}
  m_GameObject: {fileID: 0}
  m_Enabled: 1
  m_EditorHideFlags: 0
  m_Script: {fileID: 11500000, guid: 97e4a4156df2f014f827b5f26a7f71b4, type: 3}
  m_Name: MainMenuSong
  m_EditorClassIdentifier: 
  audioClips:
  - {fileID: 8300000, guid: 0cd2e48f6273d424799a1a2c22bbf59c, type: 3}
  minPitch: 0.9
  maxPitch: 1.1
  minVolume: 0.8
  maxVolume: 1
  outputGroup: {fileID: 0}
