%YAML 1.1
%TAG !u! tag:unity3d.com,2011:
--- !u!114 &11400000
MonoBehaviour:
  m_ObjectHideFlags: 0
  m_CorrespondingSourceObject: {fileID: 0}
  m_PrefabInstance: {fileID: 0}
  m_PrefabAsset: {fileID: 0}
  m_GameObject: {fileID: 0}
  m_Enabled: 1
  m_EditorHideFlags: 0
  m_Script: {fileID: 11500000, guid: 97e4a4156df2f014f827b5f26a7f71b4, type: 3}
  m_Name: MissSounds
  m_EditorClassIdentifier: 
  audioClips:
  - {fileID: 8300000, guid: 28568fec62677064faca983cecb91cdf, type: 3}
  - {fileID: 8300000, guid: 5e4263adca752cf49b8cfeda0274f17d, type: 3}
  minPitch: 0.9
  maxPitch: 1.1
  minVolume: 0.8
  maxVolume: 1
  outputGroup: {fileID: -2317397072720797600, guid: 9fd997db56299f4468d0169cffeea403,
    type: 2}
