%YAML 1.1
%TAG !u! tag:unity3d.com,2011:
--- !u!114 &11400000
MonoBehaviour:
  m_ObjectHideFlags: 0
  m_CorrespondingSourceObject: {fileID: 0}
  m_PrefabInstance: {fileID: 0}
  m_PrefabAsset: {fileID: 0}
  m_GameObject: {fileID: 0}
  m_Enabled: 1
  m_EditorHideFlags: 0
  m_Script: {fileID: 11500000, guid: 97e4a4156df2f014f827b5f26a7f71b4, type: 3}
  m_Name: TempleDamageSounds
  m_EditorClassIdentifier: 
  audioClips:
  - {fileID: 8300000, guid: 3dd59a7d8658cb1459e271585c544881, type: 3}
  - {fileID: 8300000, guid: 17a5c1ca9e990b94f94b92a554932508, type: 3}
  - {fileID: 8300000, guid: d58c80ae8c6709346bdc1981685a3cd0, type: 3}
  - {fileID: 8300000, guid: 2e0fdada9fa70ec46b8601c1de947275, type: 3}
  - {fileID: 8300000, guid: 43da335b9cf3cd74fb34f7c6bd54e92b, type: 3}
  - {fileID: 8300000, guid: 078232820b7a95b4da1cf962617616c4, type: 3}
  - {fileID: 8300000, guid: f18afe8edeabe694e925f7f24dca31af, type: 3}
  minPitch: 0.9
  maxPitch: 1.1
  minVolume: 0.8
  maxVolume: 1
  outputGroup: {fileID: 7066229648488432733, guid: 9fd997db56299f4468d0169cffeea403,
    type: 2}
