%YAML 1.1
%TAG !u! tag:unity3d.com,2011:
--- !u!114 &11400000
MonoBehaviour:
  m_ObjectHideFlags: 0
  m_CorrespondingSourceObject: {fileID: 0}
  m_PrefabInstance: {fileID: 0}
  m_PrefabAsset: {fileID: 0}
  m_GameObject: {fileID: 0}
  m_Enabled: 1
  m_EditorHideFlags: 0
  m_Script: {fileID: 11500000, guid: a6dddeeb22086e54da0ae5a3912b1321, type: 3}
  m_Name: SpawnWave_Medium_002
  m_EditorClassIdentifier: 
  _timeForEachSpawn: 3
  _npcToSpawn:
  - {fileID: 1123803076888758543, guid: 7587dce866f015c48b5134eb588c5422, type: 3}
  - {fileID: 6731368682628967118, guid: 696e7d7fe6a3b774e8add33d2ec7a533, type: 3}
  - {fileID: 7367218567827920920, guid: f7c254c5faa8b0146996282557078bf6, type: 3}
  - {fileID: 2891073943878220873, guid: b288a7ffe4c99b74883e4544777147e6, type: 3}
  - {fileID: 7367218567827920920, guid: f7c254c5faa8b0146996282557078bf6, type: 3}
  - {fileID: 2891073943878220873, guid: b288a7ffe4c99b74883e4544777147e6, type: 3}
  - {fileID: 7367218567827920920, guid: f7c254c5faa8b0146996282557078bf6, type: 3}
  - {fileID: 7367218567827920920, guid: f7c254c5faa8b0146996282557078bf6, type: 3}
  - {fileID: 7367218567827920920, guid: f7c254c5faa8b0146996282557078bf6, type: 3}
