%YAML 1.1
%TAG !u! tag:unity3d.com,2011:
--- !u!114 &11400000
MonoBehaviour:
  m_ObjectHideFlags: 0
  m_CorrespondingSourceObject: {fileID: 0}
  m_PrefabInstance: {fileID: 0}
  m_PrefabAsset: {fileID: 0}
  m_GameObject: {fileID: 0}
  m_Enabled: 1
  m_EditorHideFlags: 0
  m_Script: {fileID: 11500000, guid: 4b45bedb754a38a449eec07c55edd19e, type: 3}
  m_Name: Ally_Samurai_Black_001
  m_EditorClassIdentifier: 
  _maxLife: 2
  _speed: 5
  _prefab: 1
