{
    "name": "PlayerControls",
    "maps": [
        {
            "name": "KillNpc",
            "id": "b5fedcc9-8a6e-466c-b39e-fed0f1f0d7c5",
            "actions": [
                {
                    "name": "MouseClick",
                    "type": "Button",
                    "id": "31659cfd-6009-40ff-a889-a253bee8de11",
                    "expectedControlType": "Button",
                    "processors": "",
                    "interactions": ""
                },
                {
                    "name": "ScreenTap",
                    "type": "Button",
                    "id": "6fc8f87d-e45d-4694-b4b3-d2db81d9e290",
                    "expectedControlType": "Button",
                    "processors": "",
                    "interactions": ""
                }
            ],
            "bindings": [
                {
                    "name": "",
                    "id": "1a7aca8b-3f9b-4565-828c-b2b9708424c4",
                    "path": "<Mouse>/leftButton",
                    "interactions": "",
                    "processors": "",
                    "groups": "",
                    "action": "MouseClick",
                    "isComposite": false,
                    "isPartOfComposite": false
                },
                {
                    "name": "",
                    "id": "e573956b-dbc5-466d-897c-8024dde1d5a4",
                    "path": "<Touchscreen>/press",
                    "interactions": "",
                    "processors": "",
                    "groups": "",
                    "action": "ScreenTap",
                    "isComposite": false,
                    "isPartOfComposite": false
                }
            ]
        }
    ],
    "controlSchemes": []
}